{
  "extends": "nx/presets/npm.json",
  "$schema": "./node_modules/nx/schemas/nx-schema.json",
  "targetDefaults": {
    "build": {
      "cache": true,
      "dependsOn": ["^build"]
    },
    "lint": {
      "cache": true
    },
    "e2e": {
      "cache": true
    },
    "test": {
      "dependsOn": ["build"]
    },
    "test-non-ci": {
      "dependsOn": ["build"]
    }
  },
  "neverConnectToCloud": true
}
